[?1049h[1;47r(B[m[4l[?7h[?1h=[?1000h[39;49m[?1h=[39;49m[37m[40m[H[2J[27d(B[0;1m[36m[44m[J[H Health Check Installer v1.0[K
 (0[0;1m[36m[44mqqqqqqqqqqqqqqqqqqqqqqqqqqqqqqqqqqqqqqqqqqqqqqqqqqqqqqqqqqqqqqqqqqqqqqqqqqqqqqqqqqqqqqqqqqqqqqqqqqqqqqqqqqqqqqqqqqqqqqqqqqqqqqqqqqqqqqqqqqqqqqqqqqqqqqqqqqqqqqqqqqqqq(B[0;1m[36m[44m[K
[K
[K
[K
[K
[K
[K
[K
[K
[K
[K
[K
[K
[K
[K
[K
[K
[K
[K
[K[22;57H[1K (0[0;1m[37m[47mlqqqqqqqqqqqqq(B[0;1m[34m[47mHealth Check Install(0[0;1m[37m[47mqqqqqqqqqqqqqqq(0[0m[30m[47mk(B[0;1m[36m[44m[K[23;57H[1K (0[0;1m[37m[47mx(B[0m[30m[47m Decompressing healhcheck.tar.gz file           (0[0m[30m[47mx(B[0;1m[30m[40m  [36m[44m[K[24;57H[1K (0[0;1m[37m[47mx(B[0m[30m[47m[48X[24;107H(0[0m[30m[47mx(B[0;1m[30m[40m  [36m[44m[K[25;57H[1K (0[0;1m[37m[47mm(0[0m[30m[47mqqqqqqqqqqqqqqqqqqqqqqqqqqqqqqqqqqqqqqqqqqqqqqqqj(B[0;1m[30m[40m  [36m[44m[K[26;59H[1K [30m[40m[50X[26;110H[36m[44m[K[23;96H(B[m[39;49m[37m[40m[2;167H[?1000l[39;49m[47d[K[47;1H[?1049l[?1l>[?1049h[1;47r(B[m[4l[?7h[?1h=[?1000h[39;49m[?1h=[39;49m[37m[40m[H[2J[27d(B[0;1m[36m[44m[J[H Health Check Installer v1.0[K
 (0[0;1m[36m[44mqqqqqqqqqqqqqqqqqqqqqqqqqqqqqqqqqqqqqqqqqqqqqqqqqqqqqqqqqqqqqqqqqqqqqqqqqqqqqqqqqqqqqqqqqqqqqqqqqqqqqqqqqqqqqqqqqqqqqqqqqqqqqqqqqqqqqqqqqqqqqqqqqqqqqqqqqqqqqqqqqqqqq(B[0;1m[36m[44m[K
[K
[K
[K
[K
[K
[K
[K
[K
[K
[K
[K
[K
[K
[K
[K
[K
[K
[K
[K[22;42H[1K (0[0;1m[37m[47mlqqqqqqqqqqqqqqqqqqqqqqqqq(B[0;1m[34m[47mHealth Check Files Install(0[0;1m[37m[47mqqqqqqqqqqqqqqqqqqqqqqqqqqq(0[0m[30m[47mk(B[0;1m[36m[44m[K[23;42H[1K (0[0;1m[37m[47mx(B[0m[30m[47m ALL SCRIPT FILES ARE INSTALLED IN /opt/scripts/[30X[23;122H(0[0m[30m[47mx(B[0;1m[30m[40m  [36m[44m[K[24;42H[1K (0[0;1m[37m[47mx(B[0m[30m[47m[78X[24;122H(0[0m[30m[47mx(B[0;1m[30m[40m  [36m[44m[K[25;42H[1K (0[0;1m[37m[47mm(0[0m[30m[47mqqqqqqqqqqqqqqqqqqqqqqqqqqqqqqqqqqqqqqqqqqqqqqqqqqqqqqqqqqqqqqqqqqqqqqqqqqqqqqj(B[0;1m[30m[40m  [36m[44m[K[26;44H[1K [30m[40m[80X[26;125H[36m[44m[K[23;92H(B[m[39;49m[37m[40m[2;167H[?1000l[39;49m[47d[K[47;1H[?1049l[?1l>[?1049h[1;47r(B[m[4l[?7h[?1h=[?1000h[39;49m[?1h=[39;49m[37m[40m[H[2J[35d(B[0;1m[36m[44m[J[H Health Check Installer v1.0[K
 (0[0;1m[36m[44mqqqqqqqqqqqqqqqqqqqqqqqqqqqqqqqqqqqqqqqqqqqqqqqqqqqqqqqqqqqqqqqqqqqqqqqqqqqqqqqqqqqqqqqqqqqqqqqqqqqqqqqqqqqqqqqqqqqqqqqqqqqqqqqqqqqqqqqqqqqqqqqqqqqqqqqqqqqqqqqqqqqqq(B[0;1m[36m[44m[K
[K
[K
[K
[K
[K
[K
[K
[K
[K
[K
[K[14;62H[1K (0[0;1m[37m[47mlqqqqqq(B[0;1m[34m[47m*** Files Installed ***(0[0;1m[37m[47mqqqqqqqqq(0[0m[30m[47mk(B[0;1m[36m[44m[K[15;62H[1K (0[0;1m[37m[47mx(B[0m[30m[47m      1 diskchk[23X[15;102H(0[0m[30m[47mx(B[0;1m[30m[40m  [36m[44m[K[16;62H[1K (0[0;1m[37m[47mx(B[0m[30m[47m      2 dohealth[22X[16;102H(0[0m[30m[47mx(B[0;1m[30m[40m  [36m[44m[K[17;62H[1K (0[0;1m[37m[47mx(B[0m[30m[47m      3 globhealthck[18X[17;102H(0[0m[30m[47mx(B[0;1m[30m[40m  [36m[44m[K[18;62H[1K (0[0;1m[37m[47mx(B[0m[30m[47m      4 healthck[22X[18;102H(0[0m[30m[47mx(B[0;1m[30m[40m  [36m[44m[K[19;62H[1K (0[0;1m[37m[47mx(B[0m[30m[47m      5 infinick[22X[19;102H(0[0m[30m[47mx(B[0;1m[30m[40m  [36m[44m[K[20;62H[1K (0[0;1m[37m[47mx(B[0m[30m[47m      6 infinihealthchk[15X[20;102H(0[0m[30m[47mx(B[0;1m[30m[40m  [36m[44m[K[21;62H[1K (0[0;1m[37m[47mx(B[0m[30m[47m      7 infini-healthck[15X[21;102H(0[0m[30m[47mx(B[0;1m[30m[40m  [36m[44m[K[22;62H[1K (0[0;1m[37m[47mx(B[0m[30m[47m      8 infinip.csv[19X[22;102H(0[0m[30m[47mx(B[0;1m[30m[40m  [36m[44m[K[23;62H[1K (0[0;1m[37m[47mx(B[0m[30m[47m      9 logs[26X[23;102H(0[0m[30m[47mx(B[0;1m[30m[40m  [36m[44m[K[24;62H[1K (0[0;1m[37m[47mx(B[0m[30m[47m     10 pm-healthchk[18X[24;102H(0[0m[30m[47mx(B[0;1m[30m[40m  [36m[44m[K[25;62H[1K (0[0;1m[37m[47mx(B[0m[30m[47m[38X[25;102H(0[0m[30m[47mx(B[0;1m[30m[40m  [36m[44m[K[26;62H[1K (0[0;1m[37m[47mx(B[0m[30m[47m[38X[26;102H(0[0m[30m[47mx(B[0;1m[30m[40m  [36m[44m[K[27;62H[1K (0[0;1m[37m[47mx(B[0m[30m[47m[38X[27;102H(0[0m[30m[47mx(B[0;1m[30m[40m  [36m[44m[K[28;62H[1K (0[0;1m[37m[47mx(B[0m[30m[47m[38X[28;102H(0[0m[30m[47mx(B[0;1m[30m[40m  [36m[44m[K[29;62H[1K (0[0;1m[37m[47mx(B[0m[30m[47m[38X[29;102H(0[0m[30m[47mx(B[0;1m[30m[40m  [36m[44m[K[30;62H[1K (0[0;1m[37m[47mx(B[0m[30m[47m[38X[30;102H(0[0m[30m[47mx(B[0;1m[30m[40m  [36m[44m[K[31;62H[1K (0[0;1m[37m[47mx(B[0m[30m[47m[38X[31;102H(0[0m[30m[47mx(B[0;1m[30m[40m  [36m[44m[K[32;62H[1K (0[0;1m[37m[47mx(B[0m[30m[47m[38X[32;102H(0[0m[30m[47mx(B[0;1m[30m[40m  [36m[44m[K[33;62H[1K (0[0;1m[37m[47mm(0[0m[30m[47mqqqqqqqqqqqqqqqqqqqqqqqqqqqqqqqqqqqqqqj(B[0;1m[30m[40m  [36m[44m[K[34;64H[1K	[30m[40m[40X[34;105H[36m[44m[K[24;84H(B[m[39;49m[37m[40m[2;167H[?1000l[39;49m[47d[K[47;1H[?1049l[?1l>