<div class="clr"></div>
      <div class="menu_nav">
        <ul>
          <li class="active"><a href="index-gm.html"><span>Home</span></a></li>
          </li>
        </ul>
      </div>
      <div class="clr"></div>
          <div class="clr"></div>
    </div>
  </div>
  <div class="content">
    <div class="content_resize">
      <div class="mainbar">
        <div class="article">
                  <div class="post_content">
                  <h2><span>Historical Health</span></h2>
                  <hr />
          <div class="clr"></div>
                  </div>
          <div class="post_contenthist">
                        <div class="post_contentdate">
                        <BR><BR>
                        <!--DATE FIELD-->
                        <div id="parentdiv" style="center;width:600px;margin:auto;">
                                <FORM name="dateForm">
                                        <label>Date:</label>
                                        <input id="calendar2_container" type="text" name="date" align="center" />
                                </FORM>
                        </div>
                        </div>
                        <BR><BR>
                        <div class="post_contentdevices">
                        <font face="verdana" size=2 color="green"><b>GM Health (RAW)</b></font><BR>
                        <td><form action="dummy" method="post">
                        <select name="choice" size="1">
