</li><!-- The jQuery generated tabs go here -->
</ul><!-- End Tab Container -->

          </div>
          <div class="clr"></div>
        </div>

      </div>
      <div class="clr"></div>
    </div>
  </div>
  <div class="fbg">
    <div class="fbg_resize">
                 <center>
            NS Premium Services &copy; 2012-2013. All rights reserved.
          </center>
      <div class="clr"></div>
    </div>
  </div>

