</select>
                                <input TYPE="button" VALUE="Open Report" onClick="jump(this.form, dateForm)">
                        </form><br><br>
                        </CENTER>
                  </div>

                  <div class="post_contentdevicesscrubs">
                        <font face="verdana" size=2 color="green"><b>GM Health (Scrub)</b></font><BR>
                        <td><form action="dummy" method="post">
                                <select name="choice" size="1">

