Wed Dec 12 16:40:01 EST 2012

WFSD-IS-WB1-34

172.25.57.34_if3 = FAIL
172.25.57.34_if4 = FAIL
172.25.57.34_if5 = FAIL
172.25.57.34_if6 = FAIL
172.25.57.34_if3 = FAIL
172.25.57.34_if4 = FAIL
172.25.57.34_if5 = FAIL
172.25.57.34_if6 = FAIL
