Wed Dec 12 16:40:01 EST 2012

WSFD-IS-WB2-58

172.25.57.58_if3 = FAIL
172.25.57.58_if4 = FAIL
172.25.57.58_if5 = FAIL
172.25.57.58_if6 = FAIL
172.25.57.58_if7 = FAIL
172.25.57.58_if8 = FAIL
172.25.57.58_if9 = FAIL
172.25.57.58_if10 = FAIL
